/home/daniel/Dropbox/ETH/6.Semester/Information System/Project1/isk-task1-handout/api/src/main/java/ch/ethz/globis/isk/util/Operator.java
/home/daniel/Dropbox/ETH/6.Semester/Information System/Project1/isk-task1-handout/api/src/main/java/ch/ethz/globis/isk/persistence/PublicationDao.java
/home/daniel/Dropbox/ETH/6.Semester/Information System/Project1/isk-task1-handout/api/src/main/java/ch/ethz/globis/isk/domain/PhdThesis.java
/home/daniel/Dropbox/ETH/6.Semester/Information System/Project1/isk-task1-handout/api/src/main/java/ch/ethz/globis/isk/service/TransactionManager.java
/home/daniel/Dropbox/ETH/6.Semester/Information System/Project1/isk-task1-handout/api/src/main/java/ch/ethz/globis/isk/service/MasterThesisService.java
/home/daniel/Dropbox/ETH/6.Semester/Information System/Project1/isk-task1-handout/api/src/main/java/ch/ethz/globis/isk/service/JournalEditionService.java
/home/daniel/Dropbox/ETH/6.Semester/Information System/Project1/isk-task1-handout/api/src/main/java/ch/ethz/globis/isk/service/ConferenceService.java
/home/daniel/Dropbox/ETH/6.Semester/Information System/Project1/isk-task1-handout/api/src/main/java/ch/ethz/globis/isk/domain/Journal.java
/home/daniel/Dropbox/ETH/6.Semester/Information System/Project1/isk-task1-handout/api/src/main/java/ch/ethz/globis/isk/persistence/MasterThesisDao.java
/home/daniel/Dropbox/ETH/6.Semester/Information System/Project1/isk-task1-handout/api/src/main/java/ch/ethz/globis/isk/domain/JournalEdition.java
/home/daniel/Dropbox/ETH/6.Semester/Information System/Project1/isk-task1-handout/api/src/main/java/ch/ethz/globis/isk/service/JournalService.java
/home/daniel/Dropbox/ETH/6.Semester/Information System/Project1/isk-task1-handout/api/src/main/java/ch/ethz/globis/isk/service/InCollectionService.java
/home/daniel/Dropbox/ETH/6.Semester/Information System/Project1/isk-task1-handout/api/src/main/java/ch/ethz/globis/isk/domain/School.java
/home/daniel/Dropbox/ETH/6.Semester/Information System/Project1/isk-task1-handout/api/src/main/java/ch/ethz/globis/isk/persistence/Dao.java
/home/daniel/Dropbox/ETH/6.Semester/Information System/Project1/isk-task1-handout/api/src/main/java/ch/ethz/globis/isk/persistence/SchoolDao.java
/home/daniel/Dropbox/ETH/6.Semester/Information System/Project1/isk-task1-handout/api/src/main/java/ch/ethz/globis/isk/domain/Article.java
/home/daniel/Dropbox/ETH/6.Semester/Information System/Project1/isk-task1-handout/api/src/main/java/ch/ethz/globis/isk/domain/Publication.java
/home/daniel/Dropbox/ETH/6.Semester/Information System/Project1/isk-task1-handout/api/src/main/java/ch/ethz/globis/isk/persistence/JournalDao.java
/home/daniel/Dropbox/ETH/6.Semester/Information System/Project1/isk-task1-handout/api/src/main/java/ch/ethz/globis/isk/service/PersonService.java
/home/daniel/Dropbox/ETH/6.Semester/Information System/Project1/isk-task1-handout/api/src/main/java/ch/ethz/globis/isk/service/PublisherService.java
/home/daniel/Dropbox/ETH/6.Semester/Information System/Project1/isk-task1-handout/api/src/main/java/ch/ethz/globis/isk/test/service/TestHelper.java
/home/daniel/Dropbox/ETH/6.Semester/Information System/Project1/isk-task1-handout/api/src/main/java/ch/ethz/globis/isk/service/ArticleService.java
/home/daniel/Dropbox/ETH/6.Semester/Information System/Project1/isk-task1-handout/api/src/main/java/ch/ethz/globis/isk/service/SchoolService.java
/home/daniel/Dropbox/ETH/6.Semester/Information System/Project1/isk-task1-handout/api/src/main/java/ch/ethz/globis/isk/domain/Publisher.java
/home/daniel/Dropbox/ETH/6.Semester/Information System/Project1/isk-task1-handout/api/src/main/java/ch/ethz/globis/isk/persistence/SeriesDao.java
/home/daniel/Dropbox/ETH/6.Semester/Information System/Project1/isk-task1-handout/api/src/main/java/ch/ethz/globis/isk/service/PublicationService.java
/home/daniel/Dropbox/ETH/6.Semester/Information System/Project1/isk-task1-handout/api/src/main/java/ch/ethz/globis/isk/domain/Proceedings.java
/home/daniel/Dropbox/ETH/6.Semester/Information System/Project1/isk-task1-handout/api/src/main/java/ch/ethz/globis/isk/domain/ConferenceEdition.java
/home/daniel/Dropbox/ETH/6.Semester/Information System/Project1/isk-task1-handout/api/src/main/java/ch/ethz/globis/isk/util/Order.java
/home/daniel/Dropbox/ETH/6.Semester/Information System/Project1/isk-task1-handout/api/src/main/java/ch/ethz/globis/isk/persistence/PersonDao.java
/home/daniel/Dropbox/ETH/6.Semester/Information System/Project1/isk-task1-handout/api/src/main/java/ch/ethz/globis/isk/service/ConferenceEditionService.java
/home/daniel/Dropbox/ETH/6.Semester/Information System/Project1/isk-task1-handout/api/src/main/java/ch/ethz/globis/isk/persistence/PublisherDao.java
/home/daniel/Dropbox/ETH/6.Semester/Information System/Project1/isk-task1-handout/api/src/main/java/ch/ethz/globis/isk/service/SeriesService.java
/home/daniel/Dropbox/ETH/6.Semester/Information System/Project1/isk-task1-handout/api/src/main/java/ch/ethz/globis/isk/service/PhdThesisService.java
/home/daniel/Dropbox/ETH/6.Semester/Information System/Project1/isk-task1-handout/api/src/main/java/ch/ethz/globis/isk/persistence/PhdThesisDao.java
/home/daniel/Dropbox/ETH/6.Semester/Information System/Project1/isk-task1-handout/api/src/main/java/ch/ethz/globis/isk/persistence/ArticleDao.java
/home/daniel/Dropbox/ETH/6.Semester/Information System/Project1/isk-task1-handout/api/src/main/java/ch/ethz/globis/isk/domain/DomainObject.java
/home/daniel/Dropbox/ETH/6.Semester/Information System/Project1/isk-task1-handout/api/src/main/java/ch/ethz/globis/isk/service/BookService.java
/home/daniel/Dropbox/ETH/6.Semester/Information System/Project1/isk-task1-handout/api/src/main/java/ch/ethz/globis/isk/domain/Book.java
/home/daniel/Dropbox/ETH/6.Semester/Information System/Project1/isk-task1-handout/api/src/main/java/ch/ethz/globis/isk/test/service/PublicationServiceTest.java
/home/daniel/Dropbox/ETH/6.Semester/Information System/Project1/isk-task1-handout/api/src/main/java/ch/ethz/globis/isk/persistence/ConferenceDao.java
/home/daniel/Dropbox/ETH/6.Semester/Information System/Project1/isk-task1-handout/api/src/main/java/ch/ethz/globis/isk/persistence/InCollectionDao.java
/home/daniel/Dropbox/ETH/6.Semester/Information System/Project1/isk-task1-handout/api/src/main/java/ch/ethz/globis/isk/domain/Conference.java
/home/daniel/Dropbox/ETH/6.Semester/Information System/Project1/isk-task1-handout/api/src/main/java/ch/ethz/globis/isk/service/InProceedingsService.java
/home/daniel/Dropbox/ETH/6.Semester/Information System/Project1/isk-task1-handout/api/src/main/java/ch/ethz/globis/isk/util/OrderFilter.java
/home/daniel/Dropbox/ETH/6.Semester/Information System/Project1/isk-task1-handout/api/src/main/java/ch/ethz/globis/isk/persistence/InProceedingsDao.java
/home/daniel/Dropbox/ETH/6.Semester/Information System/Project1/isk-task1-handout/api/src/main/java/ch/ethz/globis/isk/persistence/BookDao.java
/home/daniel/Dropbox/ETH/6.Semester/Information System/Project1/isk-task1-handout/api/src/main/java/ch/ethz/globis/isk/persistence/ProceedingsDao.java
/home/daniel/Dropbox/ETH/6.Semester/Information System/Project1/isk-task1-handout/api/src/main/java/ch/ethz/globis/isk/service/BaseService.java
/home/daniel/Dropbox/ETH/6.Semester/Information System/Project1/isk-task1-handout/api/src/main/java/ch/ethz/globis/isk/domain/Person.java
/home/daniel/Dropbox/ETH/6.Semester/Information System/Project1/isk-task1-handout/api/src/main/java/ch/ethz/globis/isk/domain/InProceedings.java
/home/daniel/Dropbox/ETH/6.Semester/Information System/Project1/isk-task1-handout/api/src/main/java/ch/ethz/globis/isk/domain/InCollection.java
/home/daniel/Dropbox/ETH/6.Semester/Information System/Project1/isk-task1-handout/api/src/main/java/ch/ethz/globis/isk/persistence/JournalEditionDao.java
/home/daniel/Dropbox/ETH/6.Semester/Information System/Project1/isk-task1-handout/api/src/main/java/ch/ethz/globis/isk/service/ProceedingsService.java
/home/daniel/Dropbox/ETH/6.Semester/Information System/Project1/isk-task1-handout/api/src/main/java/ch/ethz/globis/isk/domain/Series.java
/home/daniel/Dropbox/ETH/6.Semester/Information System/Project1/isk-task1-handout/api/src/main/java/ch/ethz/globis/isk/util/Filter.java
/home/daniel/Dropbox/ETH/6.Semester/Information System/Project1/isk-task1-handout/api/src/main/java/ch/ethz/globis/isk/domain/MasterThesis.java
/home/daniel/Dropbox/ETH/6.Semester/Information System/Project1/isk-task1-handout/api/src/main/java/ch/ethz/globis/isk/persistence/ConferenceEditionDao.java
